Humana First Round Report
…
## Check: all NAs represent people from the control group
demo_df %>% filter(is.na(mth_out),
                crd ==0)

## # A tibble: 981 x 12
##    id    transport fin_assis lonely food_insec region rural is_lowincome   age
##    <chr>     <dbl>     <dbl>  <dbl>      <dbl> <chr>  <chr> <chr>        <dbl>
##  1 9786         0         0      0          0 North Urban Y               47
##  2 9950         0         0      0          0 South Urban N               66
##  3 3104         0         0      0          0 South Urban N               89
##  4 8967         0         0      0          0 South Subu N               77
##  5 5333         0         0      0          0 Centr Urban Y               54
##  6 1876         0         0      0          0 South Semi N               49
##  7 4404         0         0      0          0 South Urban N               79
##  8 7206         0         0      0          0 South Subu Y               75
##  9 3130         0         0      0          0 North Urban Y               95
## 10 3821         0         0      0          0 South Semi N               77
## #  with 971 more rows, and 3 more variables: chronic_count <dbl>,
## #   gender <chr>, mth_out <chr>
…
